<?xml version="1.0"?>
<svg xmlns="http://www.w3.org/2000/svg" xmlns:xlink="http://www.w3.org/1999/xlink" version="1.1" id="Capa_1" x="0px" y="0px" width="512px" height="512px" viewBox="0 0 255 255" style="enable-background:new 0 0 255 255;" xml:space="preserve" class=""><g><g>
	<g id="arrow-drop-down">
		<polygon points="0,63.75 127.5,191.25 255,63.75   " data-original="#000000" class="active-path" data-old_color="#EFEFEF" fill="#F0F0F0"/>
	</g>
</g></g> </svg>
